<?xml version="1.0" encoding="utf-8"?>
<!-- Generator: Adobe Illustrator 22.1.0, SVG Export Plug-In . SVG Version: 6.00 Build 0)  -->
<svg version="1.1" id="Layer_1" xmlns="http://www.w3.org/2000/svg" xmlns:xlink="http://www.w3.org/1999/xlink" x="0px" y="0px"
	 viewBox="0 0 700 200" style="enable-background:new 0 0 700 200;" xml:space="preserve">
<style type="text/css">
	.st0{fill:#E61428;}
	.st1{fill:#58595B;}
	.st2{fill:none;}
	.st3{fill:#FFCF01;}
	.st4{fill:#6961D6;}
	.st5{fill:#00B2A9;}
</style>
<rect x="229.3" y="106.6" class="st0" width="32.1" height="6"/>
<rect x="229.3" y="106.6" class="st0" width="32.1" height="6"/>
<rect x="235.4" y="119.6" class="st0" width="26" height="6"/>
<rect x="235.4" y="119.7" class="st0" width="6" height="19"/>
<rect x="235.4" y="119.6" class="st0" width="26" height="6"/>
<rect x="235.4" y="119.7" class="st0" width="6" height="19"/>
<rect x="273.4" y="106.6" class="st1" width="6.5" height="32.1"/>
<polygon class="st1" points="317.6,127.6 301.5,106.6 295.5,106.6 295.5,138.7 301.9,138.7 301.9,117.1 318.4,138.7 324,138.7 
	324,106.6 317.6,106.6 "/>
<rect x="339.5" y="106.6" class="st1" width="6.5" height="32.1"/>
<path class="st1" d="M461.5,106c-9.6,0-17.1,7.3-17.1,16.7c0,9.4,7.3,16.5,17,16.5c9.6,0,17.1-7.3,17.1-16.7
	C478.6,113.1,471.2,106,461.5,106z M461.5,133.4c-5.8,0-10.3-4.7-10.3-10.8c0-6,4.4-10.6,10.2-10.6c5.8,0,10.3,4.7,10.3,10.8
	C471.8,128.8,467.4,133.4,461.5,133.4z"/>
<polygon class="st1" points="505.2,122.4 516,106.6 508.6,106.7 501.4,117.6 494.3,106.6 486.8,106.6 497.6,122.3 486.4,138.7 
	493.7,138.6 501.3,127.1 508.9,138.7 516.4,138.7 "/>
<path class="st2" d="M411.6,133.1h9c4.8,0,5.5-2.5,5.5-3.9c0-1.8-1-4-5.7-4h-8.7v3.8V133.1z"/>
<polygon class="st1" points="383.7,106.6 383.7,127.6 383.4,127.3 383.4,137.3 384.5,138.7 390.1,138.7 390.1,106.6 "/>
<polygon class="st1" points="367.6,106.6 361.6,106.6 361.6,138.7 368,138.7 368,117.1 370.3,120.1 370.3,110 "/>
<polygon class="st1" points="370.3,110 370.3,120.1 383.4,137.3 383.4,127.3 "/>
<path class="st1" d="M426.6,122.3l-0.2-0.1c0.2-0.1,0.5-0.2,0.5-0.2l0.7-0.4c2.8-1.6,4.1-3.8,4.1-6.8c0-2.1-0.7-3.9-2.1-5.3
	c-1.8-1.8-4.7-2.8-8.3-2.8h-21.9v5.6h12.3h2.1h6.4c3.3,0,5.1,1.4,5.1,3.8c0,1.8-1,3.8-5.6,3.8h-8h-6.3l0,0v5.3v3.8v4.5v5.3h15.3
	c7.6,0,11.9-3.2,11.9-8.7C432.5,126.1,430.7,123.8,426.6,122.3z M411.6,121.9L411.6,121.9L411.6,121.9L411.6,121.9L411.6,121.9z
	 M420.6,133.1h-9v-4.2v-3.8h8.7c4.7,0,5.7,2.2,5.7,4C426.1,130.6,425.4,133.1,420.6,133.1z"/>
<path class="st3" d="M245.5,66.5c5.7,0,10.4,4.7,10.4,10.4c0,5.7-4.7,10.4-10.4,10.4s-10.4-4.7-10.4-10.4
	C235.1,71.2,239.7,66.5,245.5,66.5 M245.5,60.3c-9.2,0-16.6,7.4-16.6,16.6c0,9.2,7.4,16.6,16.6,16.6c9.2,0,16.6-7.4,16.6-16.6
	C262.1,67.7,254.6,60.3,245.5,60.3L245.5,60.3z"/>
<path class="st4" d="M210.3,66.5v20.7h-20.7V66.5H210.3 M216.6,60.3h-33.3v33.3h33.3V60.3L216.6,60.3z"/>
<path class="st5" d="M183.3,138.9l0-33.3l33.2,16.4L183.3,138.9z M189.6,115.6l0,13.1l13.1-6.6L189.6,115.6z"/>
</svg>
