<?xml version="1.0" encoding="utf-8"?>
<!-- Generator: Adobe Illustrator 22.1.0, SVG Export Plug-In . SVG Version: 6.00 Build 0)  -->
<svg version="1.1" id="Layer_1" xmlns="http://www.w3.org/2000/svg" xmlns:xlink="http://www.w3.org/1999/xlink" x="0px" y="0px"
	 viewBox="0 0 2062 1828.9" style="enable-background:new 0 0 2062 1828.9;" xml:space="preserve">
<style type="text/css">
	.st0{fill:#F3F3F4;}
	.st1{fill:none;}
</style>
<polygon class="st0" points="1652.6,408.3 0,1250.4 0,0 858.9,0 "/>
<rect x="0" y="0" class="st1" width="2062" height="1250.4"/>
</svg>
