<?xml version="1.0" encoding="utf-8"?>
<!-- Generator: Adobe Illustrator 22.1.0, SVG Export Plug-In . SVG Version: 6.00 Build 0)  -->
<svg version="1.1" id="Layer_1" xmlns="http://www.w3.org/2000/svg" xmlns:xlink="http://www.w3.org/1999/xlink" x="0px" y="0px"
	 viewBox="0 0 2978.8 1127.6" style="enable-background:new 0 0 2978.8 1127.6;" xml:space="preserve">
<style type="text/css">
	.st0{fill:#F6F6F7;}
	.st1{fill:none;}
</style>
<polygon class="st0" points="2978.8,1120.3 2978.8,599.1 2978.8,598 1948.8,0 0,1127.6 "/>
<rect y="-1127.6" class="st1" width="3897.6" height="2255.2"/>
</svg>
