<?xml version="1.0" encoding="UTF-8"?>
<svg width="43px" height="10px" viewBox="0 0 43 10" version="1.1" xmlns="http://www.w3.org/2000/svg" xmlns:xlink="http://www.w3.org/1999/xlink">
    <!-- Generator: Sketch 52.6 (67491) - http://www.bohemiancoding.com/sketch -->
    <title>Combined Shape</title>
    <desc>Created with Sketch.</desc>
    <g id="Design" stroke="none" stroke-width="1" fill="none" fill-rule="evenodd" stroke-linecap="round" stroke-linejoin="round">
        <g id="HOME_full-length" transform="translate(-403.000000, -7059.000000)" fill-rule="nonzero" stroke="#6961D6">
            <g id="Group-31" transform="translate(-529.000000, 6480.000000)">
                <path d="M970,580 L975,584 L970,580 Z M970,588 L975,584 L970,588 Z M932,584.138086 L974.655273,584.138086 L932,584.138086 Z" id="Combined-Shape"></path>
            </g>
        </g>
    </g>
</svg>