<?xml version="1.0" encoding="UTF-8"?>
<svg width="12px" height="31px" viewBox="0 0 12 31" version="1.1" xmlns="http://www.w3.org/2000/svg" xmlns:xlink="http://www.w3.org/1999/xlink">
    <!-- Generator: Sketch 52.6 (67491) - http://www.bohemiancoding.com/sketch -->
    <title>Group 2</title>
    <desc>Created with Sketch.</desc>
    <g id="Design" stroke="none" stroke-width="1" fill="none" fill-rule="evenodd" stroke-linecap="round">
        <g id="HOME_full-length" transform="translate(-714.000000, -662.000000)" fill-rule="nonzero" stroke="#FFFFFF">
            <g id="scroll-down-button" transform="translate(668.000000, 634.000000)">
                <g id="Group-2" transform="translate(52.000000, 44.000000) rotate(-270.000000) translate(-52.000000, -44.000000) translate(37.000000, 39.000000)">
                    <path d="M0.29296875,5 L29.0664063,5" id="Line-4"></path>
                    <g id="Group-4" transform="translate(23.000000, -0.000000)">
                        <g id="Group">
                            <path d="M0.259615385,0 L6,5" id="Line-6"></path>
                        </g>
                        <g id="Group" transform="translate(3.000000, 7.500000) scale(1, -1) translate(-3.000000, -7.500000) translate(0.000000, 5.000000)">
                            <path d="M0.259615385,0 L6,5" id="Line-6"></path>
                        </g>
                    </g>
                </g>
            </g>
        </g>
    </g>
</svg>