<?xml version="1.0" encoding="UTF-8"?>
<svg width="731px" height="728px" viewBox="0 0 731 728" version="1.1" xmlns="http://www.w3.org/2000/svg" xmlns:xlink="http://www.w3.org/1999/xlink">
    <!-- Generator: Sketch 52.6 (67491) - http://www.bohemiancoding.com/sketch -->
    <title>background symbol 03</title>
    <desc>Created with Sketch.</desc>
    <defs>
        <path d="M706.100887,3086.80473 L705.945353,3320.85438 L939.245846,3202.17143 L706.100887,3086.80473 Z M594,3502 L594.349951,2908 L1186,3200.80591 L594,3502 Z" id="path-1"></path>
        <filter x="-24.2%" y="-14.7%" width="148.5%" height="148.3%" filterUnits="objectBoundingBox" id="filter-2">
            <feOffset dx="0" dy="56" in="SourceAlpha" result="shadowOffsetOuter1"></feOffset>
            <feGaussianBlur stdDeviation="38.5" in="shadowOffsetOuter1" result="shadowBlurOuter1"></feGaussianBlur>
            <feComposite in="shadowBlurOuter1" in2="SourceAlpha" operator="out" result="shadowBlurOuter1"></feComposite>
            <feColorMatrix values="0 0 0 0 0.290196078   0 0 0 0 0.290196078   0 0 0 0 0.290196078  0 0 0 0.2 0" type="matrix" in="shadowBlurOuter1"></feColorMatrix>
        </filter>
    </defs>
    <g id="Design" stroke="none" stroke-width="1" fill="none" fill-rule="evenodd">
        <g id="HOME_full-length" transform="translate(-518.000000, -2897.000000)">
            <g id="background-symbol-03">
                <use fill="black" fill-opacity="1" filter="url(#filter-2)" xlink:href="#path-1"></use>
                <use fill-opacity="0.1" fill="#FFFFFF" fill-rule="evenodd" xlink:href="#path-1"></use>
            </g>
        </g>
    </g>
</svg>