<?xml version="1.0" encoding="UTF-8"?>
<svg width="38px" height="64px" viewBox="0 0 38 64" version="1.1" xmlns="http://www.w3.org/2000/svg" xmlns:xlink="http://www.w3.org/1999/xlink">
    <!-- Generator: Sketch 52.6 (67491) - http://www.bohemiancoding.com/sketch -->
    <title>Group 6</title>
    <desc>Created with Sketch.</desc>
    <defs>
        <polygon id="path-1" points="0 65 39 65 39 0 0 0"></polygon>
    </defs>
    <g id="Design" stroke="none" stroke-width="1" fill="none" fill-rule="evenodd">
        <g id="HOME_full-length" transform="translate(-735.000000, -9891.000000)">
            <g id="footer" transform="translate(0.000000, 9848.000000)">
                <g id="Group-22" transform="translate(734.000000, 42.000000)">
                    <g id="Group-6">
                        <path d="M32.508019,64 L7.49198104,64 C4.4590611,64 2,61.5123384 2,58.4441436 L2,7.55585644 C2,4.48766162 4.4590611,2 7.49198104,2 L32.508019,2 C35.5409389,2 38,4.48766162 38,7.55585644 L38,58.4441436 C38,61.5123384 35.5409389,64 32.508019,64 Z" id="Stroke-1" stroke="#D8D8D8" stroke-width="2" stroke-linecap="round" stroke-linejoin="round"></path>
                        <mask id="mask-2" fill="white">
                            <use xlink:href="#path-1"></use>
                        </mask>
                        <g id="Clip-4"></g>
                        <polygon id="Stroke-3" stroke="#D8D8D8" stroke-width="2" stroke-linecap="round" stroke-linejoin="round" mask="url(#mask-2)" points="5 53 34 53 34 10 5 10"></polygon>
                        <path d="M22,58.5 C22,59.8804554 20.8804554,61 19.5,61 C18.1195446,61 17,59.8804554 17,58.5 C17,57.1195446 18.1195446,56 19.5,56 C20.8804554,56 22,57.1195446 22,58.5 Z" id="Stroke-5" stroke="#D8D8D8" stroke-width="2" stroke-linecap="round" stroke-linejoin="round" mask="url(#mask-2)"></path>
                    </g>
                </g>
            </g>
        </g>
    </g>
</svg>