<?xml version="1.0" encoding="UTF-8"?>
<svg width="54px" height="65px" viewBox="0 0 54 65" version="1.1" xmlns="http://www.w3.org/2000/svg" xmlns:xlink="http://www.w3.org/1999/xlink">
    <!-- Generator: Sketch 52.6 (67491) - http://www.bohemiancoding.com/sketch -->
    <title>Group 7</title>
    <desc>Created with Sketch.</desc>
    <g id="Design" stroke="none" stroke-width="1" fill="none" fill-rule="evenodd">
        <g id="Contacts_full-length" transform="translate(-1019.000000, -701.000000)">
            <g id="PIN-button" transform="translate(1019.000000, 701.000000)">
                <g id="Group-7">
                    <path d="M9.87651811,47.8765181 C8.50624767,46.7512693 7.24873075,45.4937523 6.12348189,44.1234819 L6,44 L6.0226859,44 C2.25666107,39.358603 0,33.4428372 0,27 C0,12.0883118 12.0883118,0 27,0 C41.9116882,0 54,12.0883118 54,27 C54,33.4428372 51.7433389,39.358603 47.9773141,44 L48,44 L47.8765181,44.1234819 C46.7512693,45.4937523 45.4937523,46.7512693 44.1234819,47.8765181 L27,65 L9.87651811,47.8765181 Z" id="Combined-Shape" fill="#6961D6" fill-rule="nonzero"></path>
                    <g id="Group-2" transform="translate(17.000000, 19.000000)" fill="#FFFFFF">
                        <g id="Group-Copy">
                            <path d="M12.1858208,12.3310112 L22.7741688,12.3310112 L22.7741688,14.3250416 L12.1858208,14.3250416 L12.1858208,12.3310112 Z M14.1784394,16.6074297 L22.7744903,16.6074297 L22.7744903,16.6082347 L22.7744903,18.6022652 L16.1691292,18.6022652 L16.1691292,22.9364841 L14.1784394,22.9364841 L14.1784394,18.6022652 L14.1784394,16.6621709 L14.1784394,16.6082347 L14.1784394,16.6074297 Z M17.5109361,-2.99967799 C20.5423781,-2.99967799 23,-0.537931846 23,2.49779239 C23,5.53432165 20.5423781,7.99606779 17.5109361,7.99606779 C14.4802977,7.99606779 12.0226758,5.53432165 12.0226758,2.49779239 C12.0226758,-0.537931846 14.4802977,-2.99967799 17.5109361,-2.99967799 Z M17.5109361,-0.930780806 C15.623116,-0.930780806 14.0881069,0.606804263 14.0881069,2.49779239 C14.0881069,4.38878052 15.623116,5.92717061 17.5109361,5.92717061 C19.3987562,5.92717061 20.9345689,4.38878052 20.9345689,2.49779239 C20.9345689,0.606804263 19.3987562,-0.930780806 17.5109361,-0.930780806 Z M-3,7.99574579 L-3,-3 L7.97732415,-3 L7.97732415,7.99574579 L-3,7.99574579 Z M-0.934568924,5.9268486 L5.91189307,5.9268486 L5.91189307,-0.931102813 L-0.934568924,-0.931102813 L-0.934568924,5.9268486 Z M-0.921629842,15.3144897 L-0.924040851,19.6470985 L3.40130936,17.4502034 L-0.921629842,15.3144897 Z M-2.99991963,23 L-2.99349028,12.0050592 L7.97740452,17.4252479 L-2.99991963,23 Z" id="Combined-Shape"></path>
                        </g>
                    </g>
                </g>
            </g>
        </g>
    </g>
</svg>