<?xml version="1.0" encoding="utf-8"?>
<!-- Generator: Adobe Illustrator 22.1.0, SVG Export Plug-In . SVG Version: 6.00 Build 0)  -->
<svg version="1.1" id="Слой_1" xmlns="http://www.w3.org/2000/svg" xmlns:xlink="http://www.w3.org/1999/xlink" x="0px" y="0px"
	 viewBox="0 0 325 325" style="enable-background:new 0 0 325 325;" xml:space="preserve">
<style type="text/css">
	.st0{fill:#F4D433;}
	.st1{fill:#FFFFFF;}
	.st2{fill:none;stroke:#FFC701;stroke-width:3;stroke-linecap:round;stroke-linejoin:round;}
</style>
<title>cube-side-bg-2</title>
<g id="Слой_2_1_">
	<g id="Layer_1">
		
			<image style="overflow:visible;opacity:5.000000e-02;enable-background:new    ;" width="356" height="356" xlink:href="37129107.png"  transform="matrix(1 0 0 1 -15.82 -13.16)">
		</image>
		<rect class="st0" width="325" height="325"/>
		<rect x="15" y="15" class="st1" width="295" height="295"/>
		<g id="Design">
			<g id="HOME_full-length">
				<g id="animated-box_side-02">
					<g id="geltonas-symbol">
						<g id="Group-19-Copy">
							<g id="Group-4">
								<path id="Stroke-1" class="st2" d="M91.6,194.1c-11.5-36.9,7.1-76.5,42.9-91.3c4.8-2,9.9-3.6,15-4.6"/>
								<path id="Stroke-3" class="st2" d="M222.5,217.5c-25.2,32.8-72.1,39-104.9,13.8c0,0,0,0-0.1,0c-5.9-4.4-11.1-9.8-15.4-15.8"
									/>
								<path id="Stroke-5" class="st2" d="M176.2,98.2c39.4,7,66.3,43.8,61.1,83.5c-0.6,4.3-1.5,8.6-2.7,12.8"/>
							</g>
							<g id="Group">
								<polyline id="Stroke-7" class="st2" points="142,133.6 163.2,154.6 184.1,133.5 								"/>
								<path id="Stroke-9" class="st2" d="M163.1,153.4V78.3"/>
							</g>
							<g id="Group-3">
								<polyline id="Stroke-11" class="st2" points="141.4,204 149,175.2 120.2,167.6 								"/>
								<path id="Stroke-13" class="st2" d="M148,175.8l-65.1,37.6"/>
							</g>
							<g id="Group-2">
								<polyline id="Stroke-15" class="st2" points="183.6,204 176,175.2 204.8,167.6 								"/>
								<path id="Stroke-17" class="st2" d="M177,175.8l65.1,37.6"/>
							</g>
						</g>
					</g>
				</g>
			</g>
		</g>
	</g>
</g>
</svg>
