<?xml version="1.0" encoding="UTF-8"?>
<svg width="51px" height="52px" viewBox="0 0 51 52" version="1.1" xmlns="http://www.w3.org/2000/svg" xmlns:xlink="http://www.w3.org/1999/xlink">
    <!-- Generator: Sketch 52.6 (67491) - http://www.bohemiancoding.com/sketch -->
    <title>logo symbol_white</title>
    <desc>Created with Sketch.</desc>
    <defs>
        <filter x="-30.0%" y="-30.0%" width="160.0%" height="160.0%" filterUnits="objectBoundingBox" id="filter-1">
            <feOffset dx="0" dy="0" in="SourceAlpha" result="shadowOffsetOuter1"></feOffset>
            <feGaussianBlur stdDeviation="3" in="shadowOffsetOuter1" result="shadowBlurOuter1"></feGaussianBlur>
            <feColorMatrix values="0 0 0 0 0   0 0 0 0 0   0 0 0 0 0  0 0 0 0.3 0" type="matrix" in="shadowBlurOuter1" result="shadowMatrixOuter1"></feColorMatrix>
            <feMerge>
                <feMergeNode in="shadowMatrixOuter1"></feMergeNode>
                <feMergeNode in="SourceGraphic"></feMergeNode>
            </feMerge>
        </filter>
    </defs>
    <g id="Design" stroke="none" stroke-width="1" fill="none" fill-rule="evenodd">
        <g id="Home_page-scroll-section-01" transform="translate(-51.000000, -21.000000)" fill="#FFFFFF">
            <g id="logo-symbol_white" transform="translate(57.000000, 27.000000)">
                <g id="Group-34" filter="url(#filter-1)">
                    <path d="M30.9352727,0.653818182 C26.3643636,0.653818182 22.657697,4.36048485 22.657697,8.93139394 C22.657697,13.5035152 26.3643636,17.2101818 30.9352727,17.2101818 C35.5073939,17.2101818 39.2140606,13.5035152 39.2140606,8.93139394 C39.2140606,4.36048485 35.5073939,0.653818182 30.9352727,0.653818182 M30.9352727,3.7689697 C33.7825455,3.7689697 36.0989091,6.08412121 36.0989091,8.93139394 C36.0989091,11.7786667 33.7825455,14.0950303 30.9352727,14.0950303 C28.088,14.0950303 25.7728485,11.7786667 25.7728485,8.93139394 C25.7728485,6.08412121 28.088,3.7689697 30.9352727,3.7689697" id="Fill-20"></path>
                    <path d="M-1.74971149e-13,17.209697 L16.5563636,17.209697 L16.5563636,0.653333333 L-1.74971149e-13,0.653333333 L-1.74971149e-13,17.209697 Z M3.11515152,14.0945455 L13.4412121,14.0945455 L13.4412121,3.76848485 L3.11515152,3.76848485 L3.11515152,14.0945455 Z" id="Fill-22"></path>
                    <path d="M3.13466667,28.2295758 L3.1310303,34.7532121 L9.65466667,31.4453333 L3.13466667,28.2295758 Z M0.000121212121,39.801697 L0.00981818182,23.2465455 L16.5564848,31.4077576 L0.000121212121,39.801697 Z" id="Fill-24"></path>
                    <path d="M22.9037576,23.7373333 L38.8734545,23.7373333 L38.8734545,26.7397576 L22.9037576,26.7397576 L22.9037576,23.7373333 Z M25.9090909,30.1763636 L38.8739394,30.1763636 L38.8739394,30.1775758 L38.8739394,33.18 L28.9115152,33.18 L28.9115152,39.7060606 L25.9090909,39.7060606 L25.9090909,33.18 L25.9090909,30.2587879 L25.9090909,30.1775758 L25.9090909,30.1763636 Z" id="Combined-Shape"></path>
                </g>
            </g>
        </g>
    </g>
</svg>