<?xml version="1.0" encoding="UTF-8"?>
<svg width="113px" height="19px" viewBox="0 0 113 19" version="1.1" xmlns="http://www.w3.org/2000/svg" xmlns:xlink="http://www.w3.org/1999/xlink">
    <!-- Generator: Sketch 52.6 (67491) - http://www.bohemiancoding.com/sketch -->
    <title>FORPOST</title>
    <desc>Created with Sketch.</desc>
    <g id="Design" stroke="none" stroke-width="1" fill="none" fill-rule="evenodd">
        <g id="Functionality_initial" transform="translate(-664.000000, -666.000000)" fill="#FFFFFF">
            <g id="Group-3" transform="translate(664.354839, 579.215139)">
                <path d="M11.5032152,97.8427776 L4.33294989,97.8427776 L4.33294989,105.22169 L0.598436687,105.22169 L0.598436687,87.165058 L12.3994984,87.165058 L12.3994984,90.1786304 L4.33294989,90.1786304 L4.33294989,94.8416067 L11.5032152,94.8416067 L11.5032152,97.8427776 Z M29.4537754,96.6026243 C29.4537754,98.3801862 29.1384196,99.9386299 28.5076987,101.278002 C27.8769777,102.617374 26.9744794,103.650825 25.8001766,104.378385 C24.6258738,105.105946 23.2793878,105.46972 21.7606782,105.46972 C20.2585665,105.46972 18.9183046,105.110079 17.7398523,104.390787 C16.5614,103.671494 15.6485281,102.644244 15.0012093,101.309006 C14.3538904,99.9737676 14.0260864,98.4380598 14.0177875,96.7018366 L14.0177875,95.8089262 C14.0177875,94.0313643 14.3393673,92.46672 14.9825367,91.1149461 C15.6257061,89.7631723 16.5344285,88.7255878 17.7087313,88.0021614 C18.8830341,87.2787351 20.2253707,86.9170273 21.7357814,86.9170273 C23.2461921,86.9170273 24.5885287,87.2787351 25.7628315,88.0021614 C26.9371343,88.7255878 27.8458567,89.7631723 28.4890261,91.1149461 C29.1321955,92.46672 29.4537754,94.0272305 29.4537754,95.7965247 L29.4537754,96.6026243 Z M25.6694687,95.7841232 C25.6694687,93.8908131 25.3292164,92.4522497 24.6487017,91.4683898 C23.968187,90.48453 22.9972233,89.9926074 21.7357814,89.9926074 C20.4826385,89.9926074 19.5158242,90.4783293 18.8353095,91.4497875 C18.1547948,92.4212458 17.8103931,93.8453409 17.8020942,95.7221155 L17.8020942,96.6026243 C17.8020942,98.4463281 18.1423464,99.8766239 18.8228611,100.893555 C19.5033758,101.910485 20.4826384,102.418943 21.7606782,102.418943 C23.0138211,102.418943 23.976486,101.929087 24.6487017,100.949362 C25.3209174,99.9696355 25.6611697,98.5414066 25.6694687,96.664632 L25.6694687,95.7841232 Z M38.877197,98.6116726 L35.9020348,98.6116726 L35.9020348,105.22169 L32.1675216,105.22169 L32.1675216,87.165058 L38.9020938,87.165058 C41.0432254,87.165058 42.6946936,87.6404453 43.8565479,88.5912342 C45.0184023,89.5420232 45.5993208,90.8855091 45.5993208,92.6217324 C45.5993208,93.8536241 45.3316833,94.8808741 44.7964004,95.7035132 C44.2611175,96.5261523 43.4499064,97.1813601 42.3627427,97.6691561 L46.2839815,105.048068 L46.2839815,105.22169 L42.275604,105.22169 L38.877197,98.6116726 Z M35.9020348,95.5981002 L38.9145421,95.5981002 C39.8523246,95.5981002 40.5784727,95.3604065 41.0930082,94.8850121 C41.6075437,94.4096176 41.8648076,93.7544098 41.8648076,92.9193691 C41.8648076,92.067793 41.6220666,91.3981169 41.1365775,90.9103208 C40.6510884,90.4225248 39.9062679,90.1786304 38.9020938,90.1786304 L35.9020348,90.1786304 L35.9020348,95.5981002 Z M52.172064,98.8597033 L52.172064,105.22169 L48.4375508,105.22169 L48.4375508,87.165058 L55.5082291,87.165058 C56.8692585,87.165058 58.0663655,87.4130862 59.099586,87.9091499 C60.1328065,88.4052137 60.92742,89.1100271 61.4834503,90.0236113 C62.0394806,90.9371954 62.3174915,91.9768468 62.3174915,93.1425967 C62.3174915,94.9118909 61.7096019,96.3070494 60.4938043,97.328114 C59.2780067,98.3491786 57.5954178,98.8597033 55.4459873,98.8597033 L52.172064,98.8597033 Z M52.172064,95.8461308 L55.5082291,95.8461308 C56.4958053,95.8461308 57.2489246,95.6146379 57.7676096,95.151645 C58.2862946,94.6886521 58.5456332,94.0272437 58.5456332,93.1673998 C58.5456332,92.2827527 58.2842199,91.5676048 57.7613854,91.0219346 C57.238551,90.4762645 56.5165523,90.1951659 55.5953678,90.1786304 L52.172064,90.1786304 L52.172064,95.8461308 Z M79.7701166,96.6026243 C79.7701166,98.3801862 79.4547608,99.9386299 78.8240399,101.278002 C78.193319,102.617374 77.2908206,103.650825 76.1165178,104.378385 C74.942215,105.105946 73.595729,105.46972 72.0770194,105.46972 C70.5749077,105.46972 69.2346458,105.110079 68.0561935,104.390787 C66.8777412,103.671494 65.9648693,102.644244 65.3175505,101.309006 C64.6702316,99.9737676 64.3424276,98.4380598 64.3341287,96.7018366 L64.3341287,95.8089262 C64.3341287,94.0313643 64.6557085,92.46672 65.2988779,91.1149461 C65.9420473,89.7631723 66.8507698,88.7255878 68.0250726,88.0021614 C69.1993754,87.2787351 70.541712,86.9170273 72.0521226,86.9170273 C73.5625333,86.9170273 74.9048699,87.2787351 76.0791727,88.0021614 C77.2534755,88.7255878 78.162198,89.7631723 78.8053673,91.1149461 C79.4485367,92.46672 79.7701166,94.0272305 79.7701166,95.7965247 L79.7701166,96.6026243 Z M75.9858099,95.7841232 C75.9858099,93.8908131 75.6455576,92.4522497 74.9650429,91.4683898 C74.2845282,90.48453 73.3135645,89.9926074 72.0521226,89.9926074 C70.7989797,89.9926074 69.8321654,90.4783293 69.1516507,91.4497875 C68.471136,92.4212458 68.1267343,93.8453409 68.1184354,95.7221155 L68.1184354,96.6026243 C68.1184354,98.4463281 68.4586876,99.8766239 69.1392023,100.893555 C69.819717,101.910485 70.7989796,102.418943 72.0770194,102.418943 C73.3301623,102.418943 74.2928272,101.929087 74.9650429,100.949362 C75.6372587,99.9696355 75.9775109,98.5414066 75.9858099,96.664632 L75.9858099,95.7841232 Z M91.8823877,100.484304 C91.8823877,99.781547 91.6334227,99.2420857 91.1354851,98.865904 C90.6375475,98.4897223 89.7412733,98.0928773 88.4466356,97.6753569 C87.1519979,97.2578365 86.1270917,96.8465232 85.3718864,96.4414044 C83.3137444,95.3335286 82.2846888,93.8412258 82.2846888,91.9644511 C82.2846888,90.988859 82.5606251,90.1186935 83.1125059,89.3539285 C83.6643867,88.5891635 84.4569255,87.991829 85.490146,87.561907 C86.5233665,87.1319851 87.6831287,86.9170273 88.9694674,86.9170273 C90.2641051,86.9170273 91.4176432,87.1505872 92.4301163,87.6177139 C93.4425894,88.0848407 94.2289041,88.7441822 94.7890838,89.5957584 C95.3492636,90.4473346 95.6293493,91.4146444 95.6293493,92.497717 L91.8948361,92.497717 C91.8948361,91.670944 91.6334228,91.0281377 91.1105883,90.5692787 C90.5877539,90.1104197 89.853307,89.8809936 88.9072255,89.8809936 C87.99434,89.8809936 87.2847896,90.0732155 86.778553,90.4576649 C86.2723165,90.8421143 86.019202,91.3485052 86.019202,91.9768527 C86.019202,92.5638615 86.3158854,93.055784 86.909261,93.452635 C87.5026366,93.8494861 88.376089,94.2215283 89.5296444,94.568773 C91.6541781,95.2053882 93.2019109,95.9949445 94.1728892,96.9374657 C95.1438674,97.8799869 95.6293493,99.0539869 95.6293493,100.459501 C95.6293493,102.022102 95.0359826,103.247774 93.8492314,104.136555 C92.6624801,105.025336 91.0649543,105.46972 89.0566061,105.46972 C87.6623808,105.46972 86.392659,105.215491 85.2474026,104.707026 C84.1021462,104.198561 83.2286938,103.502015 82.6270192,102.617368 C82.0253446,101.732721 81.7245118,100.707537 81.7245118,99.5417876 L85.4714734,99.5417876 C85.4714734,101.53431 86.6665057,102.530557 89.0566061,102.530557 C89.9445948,102.530557 90.6375475,102.350737 91.1354851,101.99109 C91.6334227,101.631444 91.8823877,101.129187 91.8823877,100.484304 Z M111.799791,90.1786304 L106.247815,90.1786304 L106.247815,105.22169 L102.513302,105.22169 L102.513302,90.1786304 L97.036016,90.1786304 L97.036016,87.165058 L111.799791,87.165058 L111.799791,90.1786304 Z" id="FORPOST"></path>
            </g>
        </g>
    </g>
</svg>