<?xml version="1.0" encoding="UTF-8"?>
<svg width="110px" height="108px" viewBox="0 0 110 108" version="1.1" xmlns="http://www.w3.org/2000/svg" xmlns:xlink="http://www.w3.org/1999/xlink">
    <!-- Generator: Sketch 52.6 (67491) - http://www.bohemiancoding.com/sketch -->
    <title>Group 27</title>
    <desc>Created with Sketch.</desc>
    <defs>
        <filter x="-7.8%" y="-11.3%" width="115.6%" height="122.5%" filterUnits="objectBoundingBox" id="filter-1">
            <feOffset dx="0" dy="0" in="SourceAlpha" result="shadowOffsetOuter1"></feOffset>
            <feGaussianBlur stdDeviation="18" in="shadowOffsetOuter1" result="shadowBlurOuter1"></feGaussianBlur>
            <feColorMatrix values="0 0 0 0 0   0 0 0 0 0   0 0 0 0 0  0 0 0 0.2 0" type="matrix" in="shadowBlurOuter1" result="shadowMatrixOuter1"></feColorMatrix>
            <feMerge>
                <feMergeNode in="shadowMatrixOuter1"></feMergeNode>
                <feMergeNode in="SourceGraphic"></feMergeNode>
            </feMerge>
        </filter>
    </defs>
    <g id="Design" stroke="none" stroke-width="1" fill="none" fill-rule="evenodd" stroke-linecap="round" stroke-linejoin="round">
        <g id="Functionality_16-functions-grid" transform="translate(-539.000000, -348.000000)" stroke="#4A4A4A" stroke-width="1.44">
            <g id="functions-interactive" filter="url(#filter-1)" transform="translate(277.000000, 192.000000)">
                <g id="Group-22">
                    <g id="FN-01" transform="translate(251.600000, 160.000000)">
                        <g id="Group-27" transform="translate(44.000000, 32.800000)">
                            <path d="M4.57407905,0 L37.7822846,0 C38.6374101,0 39.3309091,0.700644843 39.3309091,1.56369557 L39.3309091,22.3667392 C39.3309091,23.2297899 38.6374101,23.9304348 37.7822846,23.9304348 L4.57407905,23.9304348 C3.71895352,23.9304348 3.02545455,23.2297899 3.02545455,22.3667392 L3.02545455,1.56369557 C3.02545455,0.700644843 3.71895352,0 4.57407905,0 Z" id="Stroke-1"></path>
                            <path d="M0.052315362,32.92262 L2.59153361,24.7266104 C2.73889896,24.2530727 3.17107617,23.9304348 3.66064085,23.9304348 L38.4586999,23.9304348 C38.9730616,23.9304348 39.4208255,24.2854084 39.5455193,24.7920002 L41.5661249,32.9880099 C41.7425382,33.7051428 41.2076304,34.4 40.4793055,34.4 L1.1214226,34.4 C0.364049745,34.4 -0.174400553,33.6548429 0.052315362,32.92262 Z" id="Stroke-3"></path>
                            <path d="M5.29454545,26.5336174 L36.3054545,26.5620348" id="Stroke-5"></path>
                            <path d="M37.0618182,29.597087 L4.53818182,29.4811739" id="Stroke-7"></path>
                            <path d="M14.3709091,31.7826087 L19.6654545,31.7826087" id="Stroke-9"></path>
                            <path d="M21.9345455,31.7826087 L27.2290909,31.7826087" id="Stroke-11"></path>
                            <path d="M11.5090948,17.9478261 L8.91339846,17.9478261 C8.58530784,17.9478261 8.32,17.6716841 8.32,17.3317632 L8.32,9.58927509 C8.32,9.24935414 8.58530784,8.97391304 8.91339846,8.97391304 L11.5090948,8.97391304 C11.8365103,8.97391304 12.1018182,9.24935414 12.1018182,9.58927509 L12.1018182,17.3317632 C12.1018182,17.6716841 11.8365103,17.9478261 11.5090948,17.9478261 Z" id="Stroke-13"></path>
                            <path d="M18.3899516,17.9478261 L15.646412,17.9478261 C15.3595015,17.9478261 15.1272727,17.7112012 15.1272727,17.4197068 L15.1272727,11.7448247 C15.1272727,11.4533303 15.3595015,11.2173913 15.646412,11.2173913 L18.3899516,11.2173913 C18.6768622,11.2173913 18.9090909,11.4533303 18.9090909,11.7448247 L18.9090909,17.4197068 C18.9090909,17.7112012 18.6768622,17.9478261 18.3899516,17.9478261 Z" id="Stroke-15"></path>
                            <path d="M24.3146201,17.9478261 L21.8235617,17.9478261 C21.4671176,17.9478261 21.1781818,17.631239 21.1781818,17.2406829 L21.1781818,7.43831764 C21.1781818,7.04776158 21.4671176,6.73043478 21.8235617,6.73043478 L24.3146201,6.73043478 C24.6710642,6.73043478 24.96,7.04776158 24.96,7.43831764 L24.96,17.2406829 C24.96,17.631239 24.6710642,17.9478261 24.3146201,17.9478261 Z" id="Stroke-17"></path>
                            <path d="M6.80727273,18.3217391 L27.2290909,18.3217391" id="Stroke-19"></path>
                            <path d="M28.7418182,7.10434783 L34.0363636,7.10434783" id="Stroke-21"></path>
                            <path d="M28.7418182,10.0956522 L34.0363636,10.0956522" id="Stroke-23"></path>
                            <path d="M28.7418182,13.0869565 L34.0363636,13.0869565" id="Stroke-25"></path>
                        </g>
                    </g>
                </g>
            </g>
        </g>
    </g>
</svg>