<?xml version="1.0" encoding="UTF-8"?>
<svg width="102px" height="104px" viewBox="0 0 102 104" version="1.1" xmlns="http://www.w3.org/2000/svg" xmlns:xlink="http://www.w3.org/1999/xlink">
    <!-- Generator: Sketch 52.6 (67491) - http://www.bohemiancoding.com/sketch -->
    <title>Group 16</title>
    <desc>Created with Sketch.</desc>
    <defs>
        <filter x="-7.8%" y="-11.3%" width="115.6%" height="122.5%" filterUnits="objectBoundingBox" id="filter-1">
            <feOffset dx="0" dy="0" in="SourceAlpha" result="shadowOffsetOuter1"></feOffset>
            <feGaussianBlur stdDeviation="18" in="shadowOffsetOuter1" result="shadowBlurOuter1"></feGaussianBlur>
            <feColorMatrix values="0 0 0 0 0   0 0 0 0 0   0 0 0 0 0  0 0 0 0.2 0" type="matrix" in="shadowBlurOuter1" result="shadowMatrixOuter1"></feColorMatrix>
            <feMerge>
                <feMergeNode in="shadowMatrixOuter1"></feMergeNode>
                <feMergeNode in="SourceGraphic"></feMergeNode>
            </feMerge>
        </filter>
    </defs>
    <g id="Design" stroke="none" stroke-width="1" fill="none" fill-rule="evenodd" stroke-linecap="round" stroke-linejoin="round">
        <g id="Functionality_16-functions-grid" transform="translate(-290.000000, -190.000000)" stroke="#4A4A4A" stroke-width="1.29305263">
            <g id="functions-interactive" filter="url(#filter-1)" transform="translate(277.000000, 192.000000)">
                <g id="Group-22">
                    <g id="FN-01">
                        <g id="Group-16" transform="translate(44.000000, 30.000000)">
                            <path d="M25.1334041,19.9894737 L7.32226563,19.9894737" id="Stroke-3"></path>
                            <path d="M27.0185008,27.1123837 C25.2357865,28.7348243 22.8434334,29.7263158 20.2144368,29.7263158 C14.7006434,29.7263158 10.2325888,25.3668311 10.2325888,19.9905729 C10.2325888,14.6132155 14.7006434,10.2526316 20.2144368,10.2526316 C22.7048279,10.2526316 24.981113,11.1440945 26.7300211,12.6159428" id="Stroke-5"></path>
                            <path d="M12.1541102,29.2265182 C22.4789283,29.2265182 30.848847,20.8553348 30.848847,10.5289568 C30.848847,2.86861474 26.2428725,-3.71578182 19.6496997,-6.60506076" id="Oval" fill-rule="nonzero" transform="translate(21.501479, 11.310729) rotate(-84.000000) translate(-21.501479, -11.310729) "></path>
                            <polyline id="Stroke-11" transform="translate(5.271209, 9.548496) scale(-1, 1) rotate(-284.000000) translate(-5.271209, -9.548496) " points="6.37506252 12.6642856 7.60805154 7.7333993 2.93436733 6.43270669"></polyline>
                            <path d="M8.93273592,46.4066021 C19.257554,46.4066021 27.6274728,38.0354187 27.6274728,27.7090407 C27.6274728,20.3917976 23.4248522,14.0562774 17.3020354,10.9852492" id="Oval" fill-rule="nonzero" transform="translate(18.280104, 28.695926) rotate(-267.000000) translate(-18.280104, -28.695926) "></path>
                            <polyline id="Stroke-11" transform="translate(34.588570, 30.021206) scale(1, -1) rotate(-284.000000) translate(-34.588570, -30.021206) " points="35.6924236 33.1369951 36.9254126 28.2061087 32.2517284 26.9054161"></polyline>
                        </g>
                    </g>
                </g>
            </g>
        </g>
    </g>
</svg>