<?xml version="1.0" encoding="UTF-8"?>
<svg width="110px" height="101px" viewBox="0 0 110 101" version="1.1" xmlns="http://www.w3.org/2000/svg" xmlns:xlink="http://www.w3.org/1999/xlink">
    <!-- Generator: Sketch 52.6 (67491) - http://www.bohemiancoding.com/sketch -->
    <title>Group 5</title>
    <desc>Created with Sketch.</desc>
    <defs>
        <filter x="-7.8%" y="-11.3%" width="115.6%" height="122.5%" filterUnits="objectBoundingBox" id="filter-1">
            <feOffset dx="0" dy="0" in="SourceAlpha" result="shadowOffsetOuter1"></feOffset>
            <feGaussianBlur stdDeviation="18" in="shadowOffsetOuter1" result="shadowBlurOuter1"></feGaussianBlur>
            <feColorMatrix values="0 0 0 0 0   0 0 0 0 0   0 0 0 0 0  0 0 0 0.2 0" type="matrix" in="shadowBlurOuter1" result="shadowMatrixOuter1"></feColorMatrix>
            <feMerge>
                <feMergeNode in="shadowMatrixOuter1"></feMergeNode>
                <feMergeNode in="SourceGraphic"></feMergeNode>
            </feMerge>
        </filter>
    </defs>
    <g id="Design" stroke="none" stroke-width="1" fill="none" fill-rule="evenodd" stroke-linecap="round" stroke-linejoin="round">
        <g id="Functionality_16-functions-grid" transform="translate(-537.000000, -677.000000)" stroke="#4A4A4A" stroke-width="1.5464">
            <g id="functions-interactive" filter="url(#filter-1)" transform="translate(277.000000, 192.000000)">
                <g id="Group-22">
                    <g id="FN-01" transform="translate(252.000000, 482.000000)">
                        <g id="Group-5" transform="translate(44.800000, 36.800000)">
                            <path d="M12.8,19.6 L28,19.6" id="Stroke-1"></path>
                            <path d="M12.8,24.4 L23.2,24.4" id="Stroke-2"></path>
                            <path d="M33.1799906,11.2821163 L33.1799906,8.68114344 L33.1799906,6.6620193 C33.1799906,5.7322508 32.4114196,4.97396412 31.4712747,4.97396412 L15.6082111,4.97396412 L11.0850808,0 L1.70871583,0 C0.767567595,0 0,0.759277903 0,1.68805518 L0,3.70717932 L0,29.5057772 C0,30.4345545 0.767567595,31.1938324 1.70871583,31.1938324 L6.83185327,31.1938324 L13.5864481,31.1938324 L24.0143305,31.1938324 L30.7448448,31.1938324 C30.7448448,31.1938324 31.074949,31.2077095 31.1833115,31.1938324 C31.657899,31.1343589 32.5157687,30.8528512 32.8559065,30.2739761 C34.769307,27.0088829 39.2101621,16.3036592 39.2101621,16.3036592 C39.2101621,16.3036592 40.3289044,14.072413 39.9034814,12.7154268 C39.6255517,11.8292722 39.0315647,11.2821163 38.0914198,11.2821163 L8.32785756,11.2821163 C7.38771268,11.2821163 6.89707143,12.0522977 6.61914173,12.9701715 L6.15860117,14.1368426 L0.0461543913,29.5057772 C0.0461543913,30.4345545 0.814725342,31.1938324 1.75487023,31.1938324 L6.87800766,31.1938324" id="Stroke-3"></path>
                        </g>
                    </g>
                </g>
            </g>
        </g>
    </g>
</svg>