<?xml version="1.0" encoding="UTF-8"?>
<svg width="119px" height="107px" viewBox="0 0 119 107" version="1.1" xmlns="http://www.w3.org/2000/svg" xmlns:xlink="http://www.w3.org/1999/xlink">
    <!-- Generator: Sketch 52.6 (67491) - http://www.bohemiancoding.com/sketch -->
    <title>Group 4</title>
    <desc>Created with Sketch.</desc>
    <defs>
        <filter x="-7.8%" y="-11.3%" width="115.6%" height="122.5%" filterUnits="objectBoundingBox" id="filter-1">
            <feOffset dx="0" dy="0" in="SourceAlpha" result="shadowOffsetOuter1"></feOffset>
            <feGaussianBlur stdDeviation="18" in="shadowOffsetOuter1" result="shadowBlurOuter1"></feGaussianBlur>
            <feColorMatrix values="0 0 0 0 0   0 0 0 0 0   0 0 0 0 0  0 0 0 0.2 0" type="matrix" in="shadowBlurOuter1" result="shadowMatrixOuter1"></feColorMatrix>
            <feMerge>
                <feMergeNode in="shadowMatrixOuter1"></feMergeNode>
                <feMergeNode in="SourceGraphic"></feMergeNode>
            </feMerge>
        </filter>
    </defs>
    <g id="Design" stroke="none" stroke-width="1" fill="none" fill-rule="evenodd">
        <g id="Functionality_16-functions-grid" transform="translate(-283.000000, -669.000000)" stroke="#4A4A4A" stroke-width="1.32923077">
            <g id="functions-interactive" filter="url(#filter-1)" transform="translate(277.000000, 192.000000)">
                <g id="Group-22">
                    <g id="FN-01" transform="translate(0.000000, 482.000000)">
                        <g id="Group-4" transform="translate(38.400000, 26.400000)">
                            <g id="Group-5" transform="translate(0.000000, 3.987692)">
                                <path d="M12.9037037,15.9507692 L12.9037037,31.2369231" id="Stroke-1" stroke-linecap="round" stroke-linejoin="round"></path>
                                <path d="M8.60246914,25.605169 C8.9784086,28.0527243 10.6193394,29.4422219 12.2855614,29.7802716 C13.8476177,30.0970751 15.2017714,29.8104883 16.1216871,29.0612078 C17.2717961,28.1244891 17.6155856,26.1396275 16.6150808,24.8370031 C14.687373,22.3261815 9.30333689,24.1783727 9.20645854,20.3276279 C9.15373271,18.2223715 11.3202071,17.1595924 13.3906605,17.2908463 C15.6445826,17.4334316 16.6013635,18.711977 16.7381078,19.4876972" id="Stroke-3" stroke-linecap="round" stroke-linejoin="round"></path>
                                <ellipse id="Oval" fill-rule="nonzero" cx="12.9037037" cy="23.5938462" rx="12.9037037" ry="12.96"></ellipse>
                                <path d="M42.9529449,12.2914866 L33.0864198,12.2914866" id="Stroke-3" stroke-linecap="round" stroke-linejoin="round"></path>
                                <ellipse id="Oval" fill-rule="nonzero" cx="40.6962963" cy="12.96" rx="12.9037037" ry="12.96"></ellipse>
                                <path d="M45.5919383,17.3546419 C44.4043698,18.4490936 42.8106857,19.1179252 41.0593599,19.1179252 C37.3863048,19.1179252 34.4098765,16.1771423 34.4098765,12.5504733 C34.4098765,8.92306286 37.3863048,5.98153846 41.0593599,5.98153846 C42.7183526,5.98153846 44.2347171,6.58289371 45.3997654,7.57576015" id="Stroke-5" stroke-linecap="round" stroke-linejoin="round"></path>
                            </g>
                            <g id="Group-13" transform="translate(17.204938, 0.000000)" stroke-linecap="round" stroke-linejoin="round">
                                <g id="Group-12" transform="translate(0.000000, 0.174860)">
                                    <g id="Group">
                                        <path d="M6.35259259,8.65909259 L10.5474212,4.35020979" id="Stroke-1"></path>
                                        <path d="M6.35259259,-1.13686838e-13 L10.5474212,4.30833902" id="Stroke-2"></path>
                                        <path d="M-3.92574862e-13,11.9247819 C0.0158814815,9.80459843 0.887245432,7.70072822 2.57227062,6.2053436 C4.59610074,4.41033829 7.29330568,3.93562165 9.66864593,4.70452123" id="Stroke-4"></path>
                                    </g>
                                    <g id="Group-3" transform="translate(9.264198, 31.236923)">
                                        <path d="M4.19482864,2.69010989 L-4.65405492e-13,6.95339604" id="Stroke-6"></path>
                                        <path d="M4.19482864,11.2570338 L-4.65405492e-13,6.99428571" id="Stroke-8"></path>
                                        <path d="M10.1980286,-1.38555833e-13 C10.1821472,2.09774769 9.31078321,4.17935473 7.62575802,5.65891516 C5.6019279,7.43492571 2.90472296,7.9046189 0.529382716,7.14385582" id="Stroke-10"></path>
                                    </g>
                                </g>
                            </g>
                        </g>
                    </g>
                </g>
            </g>
        </g>
    </g>
</svg>