<?xml version="1.0" encoding="UTF-8"?>
<svg width="117px" height="142px" viewBox="0 0 117 142" version="1.1" xmlns="http://www.w3.org/2000/svg" xmlns:xlink="http://www.w3.org/1999/xlink">
    <!-- Generator: Sketch 52.6 (67491) - http://www.bohemiancoding.com/sketch -->
    <title> icon_side 03</title>
    <desc>Created with Sketch.</desc>
    <g id="Design" stroke="none" stroke-width="1" fill="none" fill-rule="evenodd" stroke-linecap="round" stroke-linejoin="round">
        <g id="HOME_full-length" transform="translate(-353.000000, -3546.000000)" stroke="#00B2A9">
            <g id="animated-box_side-03" transform="translate(225.000000, 3460.000000)">
                <g id="zalias-symbol" transform="translate(130.000000, 88.000000)">
                    <g id="Group-7">
                        <polygon id="Stroke-1" stroke-width="3" points="0 138.337 113.064 138.337 113.064 0 0 0"></polygon>
                        <path d="M21.6152,30.5935 L91.4482,30.5935" id="Stroke-3" stroke-width="3"></path>
                        <path d="M21.6152,49.6575 L91.4482,49.6575" id="Stroke-4" stroke-width="3"></path>
                        <path d="M21.6152,68.7215 L67.0302,68.7215" id="Stroke-5" stroke-width="3"></path>
                        <polyline id="Stroke-6" stroke-width="3" points="50.3957 91.2996 65.6987 112.7156 94.7737 76.1516"></polyline>
                    </g>
                </g>
            </g>
        </g>
    </g>
</svg>