<?xml version="1.0" encoding="UTF-8"?>
<svg width="67px" height="60px" viewBox="0 0 67 60" version="1.1" xmlns="http://www.w3.org/2000/svg" xmlns:xlink="http://www.w3.org/1999/xlink">
    <!-- Generator: Sketch 52.6 (67491) - http://www.bohemiancoding.com/sketch -->
    <title>Group 10</title>
    <desc>Created with Sketch.</desc>
    <g id="Design" stroke="none" stroke-width="1" fill="none" fill-rule="evenodd" stroke-linecap="round" stroke-linejoin="round">
        <g id="HOME_full-length" transform="translate(-835.000000, -5842.000000)" stroke="#00B2A9">
            <g id="icon-3" transform="translate(768.000000, 5795.000000)">
                <g id="Group-10" transform="translate(68.000000, 48.000000)">
                    <path d="M62,51.5 L4,51.5" id="Stroke-1" stroke-width="2"></path>
                    <path d="M62,13.5 L4,13.5" id="Stroke-1" stroke-width="2"></path>
                    <path d="M0,57.3605 L64.6376953,57.3605" id="Stroke-2" stroke-width="2"></path>
                    <path d="M62,17.5 L4,17.5" id="Stroke-4" stroke-width="2"></path>
                    <polyline id="Stroke-5" stroke-width="2" points="62 13 33.2757188 0 32.7242812 0 4 13"></polyline>
                    <polygon id="Stroke-7" stroke-width="1.897" points="13 51 20 51 20 18 13 18"></polygon>
                    <polygon id="Stroke-8" stroke-width="2" points="29 51 37 51 37 18 29 18"></polygon>
                    <polygon id="Stroke-9" stroke-width="2" points="45 51 53 51 53 18 45 18"></polygon>
                </g>
            </g>
        </g>
    </g>
</svg>