<?xml version="1.0" encoding="UTF-8"?>
<svg width="54px" height="38px" viewBox="0 0 54 38" version="1.1" xmlns="http://www.w3.org/2000/svg" xmlns:xlink="http://www.w3.org/1999/xlink">
    <!-- Generator: Sketch 52.6 (67491) - http://www.bohemiancoding.com/sketch -->
    <title>Group 4</title>
    <desc>Created with Sketch.</desc>
    <g id="Design" stroke="none" stroke-width="1" fill="none" fill-rule="evenodd" stroke-linecap="round" stroke-linejoin="round">
        <g id="HOME_full-length" transform="translate(-1022.000000, -9903.000000)" stroke="#D8D8D8" stroke-width="2">
            <g id="footer" transform="translate(0.000000, 9848.000000)">
                <g id="Group-21" transform="translate(1023.000000, 56.000000)">
                    <g id="Group-5">
                        <g id="Group-4">
                            <polygon id="Stroke-1" points="0 36 52 36 52 0 0 0"></polygon>
                            <polygon id="Stroke-3" points="25.9994763 23 0 0 52 0"></polygon>
                        </g>
                    </g>
                </g>
            </g>
        </g>
    </g>
</svg>