<?xml version="1.0" encoding="UTF-8"?>
<svg width="26px" height="26px" viewBox="0 0 26 26" version="1.1" xmlns="http://www.w3.org/2000/svg" xmlns:xlink="http://www.w3.org/1999/xlink">
    <!-- Generator: Sketch 52.6 (67491) - http://www.bohemiancoding.com/sketch -->
    <title>linked in icon</title>
    <desc>Created with Sketch.</desc>
    <g id="Design" stroke="none" stroke-width="1" fill="none" fill-rule="evenodd">
        <g id="HOME_full-length" transform="translate(-1258.000000, -10062.000000)">
            <g id="footer" transform="translate(0.000000, 9848.000000)">
                <g id="Group-3" style="mix-blend-mode: multiply;" transform="translate(0.000000, 19.000000)">
                    <g id="FOOTER" transform="translate(627.000000, 195.000000)">
                        <g id="linked-in-icon" transform="translate(631.000000, 0.000000)">
                            <rect id="Rectangle" fill="#D8D8D8" fill-rule="nonzero" x="0" y="0" width="26" height="26"></rect>
                            <g id="Group-18" transform="translate(7.000000, 5.000000)" fill="#FFFFFF">
                                <path d="M5,5.23297421 L7.37914647,5.23297421 C7.40576629,5.53452468 7.42953399,5.8032419 7.46280876,6.17707036 C8.16252976,5.32228514 9.0146017,4.98588435 10.0427923,5.00045201 C11.7925701,5.02499291 12.8474994,5.82935162 12.9448281,7.48087554 C13.0523769,9.30082398 12.9695465,11.1309698 12.9695465,13 L10.420461,13 C10.4103597,12.7952684 10.3927716,12.5807877 10.3906325,12.3661949 C10.3776791,11.0416588 10.4153509,9.71488158 10.3428594,8.39337109 C10.2837967,7.31839015 9.31371817,6.82555515 8.30739388,7.29429749 C7.69454381,7.5799356 7.54088565,8.1313774 7.52401058,8.70657568 C7.49323142,9.75074042 7.50475875,10.7960257 7.49976753,11.8408628 C7.49810379,12.212226 7.49941102,12.5835892 7.49941102,12.9985432 L5,12.9985432 L5,5.23297421 Z" id="Fill-1"></path>
                                <polygon id="Fill-3" points="0 13 3 13 3 5 0 5"></polygon>
                                <path d="M1.49994875,3 C0.691476621,3 0.0171530982,2.33861743 0.000324847416,1.52896312 C-0.0171001498,0.698450642 0.668800254,-0.000357431357 1.5007842,1.37160726e-07 C2.31021112,0.000476895184 2.98334115,0.660429189 2.99969201,1.46984512 C3.01663961,2.30143031 2.33193269,3 1.49994875,3" id="Fill-5"></path>
                            </g>
                        </g>
                    </g>
                </g>
            </g>
        </g>
    </g>
</svg>