<?xml version="1.0" encoding="UTF-8"?>
<svg width="742px" height="744px" viewBox="0 0 742 744" version="1.1" xmlns="http://www.w3.org/2000/svg" xmlns:xlink="http://www.w3.org/1999/xlink">
    <!-- Generator: Sketch 52.6 (67491) - http://www.bohemiancoding.com/sketch -->
    <title>background symbol 02</title>
    <desc>Created with Sketch.</desc>
    <defs>
        <path d="M491,2185 C327.523384,2185 195,2317.9711 195,2482 C195,2646.0289 327.523384,2779 491,2779 C654.476616,2779 787,2646.0289 787,2482 C787,2317.9711 654.476616,2185 491,2185 M491,2296.74566 C592.803468,2296.74566 675.630583,2379.8526 675.630583,2482 C675.630583,2584.1474 592.803468,2667.25434 491,2667.25434 C389.196532,2667.25434 306.369417,2584.1474 306.369417,2482 C306.369417,2379.8526 389.196532,2296.74566 491,2296.74566" id="path-1"></path>
        <filter x="-24.2%" y="-14.7%" width="148.5%" height="148.3%" filterUnits="objectBoundingBox" id="filter-2">
            <feOffset dx="0" dy="56" in="SourceAlpha" result="shadowOffsetOuter1"></feOffset>
            <feGaussianBlur stdDeviation="38.5" in="shadowOffsetOuter1" result="shadowBlurOuter1"></feGaussianBlur>
            <feComposite in="shadowBlurOuter1" in2="SourceAlpha" operator="out" result="shadowBlurOuter1"></feComposite>
            <feColorMatrix values="0 0 0 0 0.290196078   0 0 0 0 0.290196078   0 0 0 0 0.290196078  0 0 0 0.2 0" type="matrix" in="shadowBlurOuter1"></feColorMatrix>
        </filter>
    </defs>
    <g id="Design" stroke="none" stroke-width="1" fill="none" fill-rule="evenodd">
        <g id="HOME_full-length" transform="translate(-120.000000, -2166.000000)">
            <g id="background-symbol-02">
                <use fill="black" fill-opacity="1" filter="url(#filter-2)" xlink:href="#path-1"></use>
                <use fill-opacity="0.1" fill="#FFFFFF" fill-rule="evenodd" xlink:href="#path-1"></use>
            </g>
        </g>
    </g>
</svg>