<?xml version="1.0" encoding="utf-8"?>
<!-- Generator: Adobe Illustrator 22.1.0, SVG Export Plug-In . SVG Version: 6.00 Build 0)  -->
<svg version="1.1" id="Слой_1" xmlns="http://www.w3.org/2000/svg" xmlns:xlink="http://www.w3.org/1999/xlink" x="0px" y="0px"
	 viewBox="0 0 325 325" style="enable-background:new 0 0 325 325;" xml:space="preserve">
<style type="text/css">
	.st0{fill:#69BAB3;}
	.st1{fill:#FFFFFF;}
	.st2{fill:none;stroke:#00B2A9;stroke-width:3;stroke-linecap:round;stroke-linejoin:round;}
</style>
<title>cube-side-bg-3</title>
<g id="Слой_2_1_">
	<g id="Layer_1">
		
			<image style="overflow:visible;opacity:5.000000e-02;enable-background:new    ;" width="356" height="356" xlink:href="805E0F05.png"  transform="matrix(1 0 0 1 -15.45 -13.52)">
		</image>
		<rect class="st0" width="325" height="325"/>
		<rect x="15" y="15" class="st1" width="295" height="295"/>
		<g id="Design">
			<g id="HOME_full-length">
				<g id="animated-box_side-03">
					<g id="zalias-symbol">
						<g id="Group-7">
							<polygon id="Stroke-1" class="st2" points="106,231.7 219,231.7 219,93.3 106,93.3 							"/>
							<path id="Stroke-3" class="st2" d="M127.6,123.9h69.8"/>
							<path id="Stroke-4" class="st2" d="M127.6,143h69.8"/>
							<path id="Stroke-5" class="st2" d="M127.6,162.1H173"/>
							<polyline id="Stroke-6" class="st2" points="156.4,184.6 171.7,206.1 200.7,169.5 							"/>
						</g>
					</g>
				</g>
			</g>
		</g>
	</g>
</g>
</svg>
