<?xml version="1.0" encoding="utf-8"?>
<!-- Generator: Adobe Illustrator 22.1.0, SVG Export Plug-In . SVG Version: 6.00 Build 0)  -->
<svg version="1.1" id="Layer_1" xmlns="http://www.w3.org/2000/svg" xmlns:xlink="http://www.w3.org/1999/xlink" x="0px" y="0px"
	 viewBox="0 0 2060 900" style="enable-background:new 0 0 2060 900;" xml:space="preserve">
<style type="text/css">
	.st0{fill:#7573E2;}
	.st1{fill:none;stroke:#6961D6;stroke-width:3;stroke-linecap:round;stroke-linejoin:round;}
</style>
<polyline class="st0" points="1181.1,1747.6 2061,1368.6 2061,79.2 -1,870.3 -1,910 "/>
<g>
	<g id="Design_3_">
		<g id="HOME_full-length_2_" transform="translate(-369.000000, -1057.000000)">
			<g id="animated-box_side-01" transform="translate(259.000000, 985.000000)">
				<g id="banking-copy-3" transform="translate(112.000000, 73.000000)">
					<g id="Group-23">
						<path id="Stroke-17_1_" class="st1" d="M710.1,1242"/>
					</g>
				</g>
			</g>
		</g>
	</g>
</g>
</svg>
