<?xml version="1.0" encoding="UTF-8"?>
<svg width="109px" height="99px" viewBox="0 0 109 99" version="1.1" xmlns="http://www.w3.org/2000/svg" xmlns:xlink="http://www.w3.org/1999/xlink">
    <!-- Generator: Sketch 52.6 (67491) - http://www.bohemiancoding.com/sketch -->
    <title>Group 2</title>
    <desc>Created with Sketch.</desc>
    <defs>
        <filter x="-7.8%" y="-11.3%" width="115.6%" height="122.5%" filterUnits="objectBoundingBox" id="filter-1">
            <feOffset dx="0" dy="0" in="SourceAlpha" result="shadowOffsetOuter1"></feOffset>
            <feGaussianBlur stdDeviation="18" in="shadowOffsetOuter1" result="shadowBlurOuter1"></feGaussianBlur>
            <feColorMatrix values="0 0 0 0 0   0 0 0 0 0   0 0 0 0 0  0 0 0 0.2 0" type="matrix" in="shadowBlurOuter1" result="shadowMatrixOuter1"></feColorMatrix>
            <feMerge>
                <feMergeNode in="shadowMatrixOuter1"></feMergeNode>
                <feMergeNode in="SourceGraphic"></feMergeNode>
            </feMerge>
        </filter>
        <polygon id="path-2" points="0 24 36 24 36 0 0 0"></polygon>
    </defs>
    <g id="Design" stroke="none" stroke-width="1" fill="none" fill-rule="evenodd">
        <g id="Functionality_16-functions-grid" transform="translate(-1044.000000, -352.000000)">
            <g id="functions-interactive" filter="url(#filter-1)" transform="translate(277.000000, 192.000000)">
                <g id="Group-22">
                    <g id="FN-01" transform="translate(755.600000, 160.000000)">
                        <g id="Group-2" transform="translate(46.400000, 36.000000)">
                            <g id="Group-6" transform="translate(0.000000, 4.000000)">
                                <path d="M30.9283237,22.4 L4.2716763,22.4 C2.35375723,22.4 0.8,20.6645606 0.8,18.5251297 L0.8,4.67487027 C0.8,2.53420768 2.35375723,0.8 4.2716763,0.8 L30.9283237,0.8 C32.8462428,0.8 34.4,2.53420768 34.4,4.67487027 L34.4,18.5251297 C34.4,20.6645606 32.8462428,22.4 30.9283237,22.4 Z" id="Stroke-1" stroke="#4A4A4A" stroke-width="1.4032" stroke-linecap="round" stroke-linejoin="round"></path>
                                <mask id="mask-3" fill="white">
                                    <use xlink:href="#path-2"></use>
                                </mask>
                                <g id="Clip-4"></g>
                                <polygon id="Stroke-3" stroke="#4A4A4A" stroke-width="1.4032" stroke-linecap="round" stroke-linejoin="round" mask="url(#mask-3)" points="0.8 10.4 34.4 10.4 34.4 6.4 0.8 6.4"></polygon>
                                <path d="M5.6,16.8 L13.6,16.8" id="Stroke-5" stroke="#4A4A4A" stroke-width="1.248" stroke-linecap="round" stroke-linejoin="round" mask="url(#mask-3)"></path>
                            </g>
                            <path d="M34.4,20.8 L34.4,8.53135656 C34.4,6.46997776 32.8462428,4.8 30.9283237,4.8 L5.6,4.8 L5.6,3.73135656 C5.6,1.66997776 7.15375723,0 9.0716763,0 L35.7283237,0 C37.6462428,0 39.2,1.66997776 39.2,3.73135656 L39.2,17.0686434 C39.2,19.1288362 37.6462428,20.8 35.7283237,20.8 L34.4,20.8 Z" id="Combined-Shape" stroke="#4A4A4A" stroke-width="1.4032" stroke-linecap="round" stroke-linejoin="round"></path>
                        </g>
                    </g>
                </g>
            </g>
        </g>
    </g>
</svg>