<?xml version="1.0" encoding="UTF-8"?>
<svg width="106px" height="98px" viewBox="0 0 106 98" version="1.1" xmlns="http://www.w3.org/2000/svg" xmlns:xlink="http://www.w3.org/1999/xlink">
    <!-- Generator: Sketch 52.6 (67491) - http://www.bohemiancoding.com/sketch -->
    <title>Group 32</title>
    <desc>Created with Sketch.</desc>
    <defs>
        <filter x="-7.8%" y="-11.3%" width="115.6%" height="122.5%" filterUnits="objectBoundingBox" id="filter-1">
            <feOffset dx="0" dy="0" in="SourceAlpha" result="shadowOffsetOuter1"></feOffset>
            <feGaussianBlur stdDeviation="18" in="shadowOffsetOuter1" result="shadowBlurOuter1"></feGaussianBlur>
            <feColorMatrix values="0 0 0 0 0   0 0 0 0 0   0 0 0 0 0  0 0 0 0.2 0" type="matrix" in="shadowBlurOuter1" result="shadowMatrixOuter1"></feColorMatrix>
            <feMerge>
                <feMergeNode in="shadowMatrixOuter1"></feMergeNode>
                <feMergeNode in="SourceGraphic"></feMergeNode>
            </feMerge>
        </filter>
    </defs>
    <g id="Design" stroke="none" stroke-width="1" fill="none" fill-rule="evenodd" stroke-linecap="round" stroke-linejoin="round">
        <g id="Functionality_16-functions-grid" transform="translate(-792.000000, -505.000000)" stroke="#4A4A4A" stroke-width="1.328">
            <g id="functions-interactive" filter="url(#filter-1)" transform="translate(277.000000, 192.000000)">
                <g id="Group-22">
                    <g id="FN-01" transform="translate(503.000000, 320.000000)">
                        <g id="Group-32" transform="translate(46.400000, 28.800000)">
                            <path d="M14.854699,25.3970138 L5.13859142,25.3970138 C2.31277494,25.3970138 0,23.5114214 0,21.2053519 L0,4.19166182 C0,1.88660074 2.31277494,0 5.13859142,0 L31.6624306,0 C34.4882471,0 36.8,1.88660074 36.8,4.19166182 L36.8,21.2053519 C36.8,23.5114214 34.8203955,25.3970138 32.399289,25.3970138 L28.1375694,25.3970138 L28.1181515,31.2 L20.4000444,25.3970138 L14.854699,25.3970138 Z" id="Stroke-1"></path>
                            <path d="M7.2,8.4 L29.6,8.4" id="Stroke-3"></path>
                            <path d="M7.2,12.4 L29.6,12.4" id="Stroke-5"></path>
                            <path d="M7.2,17.2 L24.8,17.2" id="Stroke-7"></path>
                        </g>
                    </g>
                </g>
            </g>
        </g>
    </g>
</svg>