<?xml version="1.0" encoding="UTF-8"?>
<svg width="104px" height="111px" viewBox="0 0 104 111" version="1.1" xmlns="http://www.w3.org/2000/svg" xmlns:xlink="http://www.w3.org/1999/xlink">
    <!-- Generator: Sketch 52.6 (67491) - http://www.bohemiancoding.com/sketch -->
    <title>Group 19</title>
    <desc>Created with Sketch.</desc>
    <defs>
        <filter x="-7.8%" y="-11.3%" width="115.6%" height="122.5%" filterUnits="objectBoundingBox" id="filter-1">
            <feOffset dx="0" dy="0" in="SourceAlpha" result="shadowOffsetOuter1"></feOffset>
            <feGaussianBlur stdDeviation="18" in="shadowOffsetOuter1" result="shadowBlurOuter1"></feGaussianBlur>
            <feColorMatrix values="0 0 0 0 0   0 0 0 0 0   0 0 0 0 0  0 0 0 0.2 0" type="matrix" in="shadowBlurOuter1" result="shadowMatrixOuter1"></feColorMatrix>
            <feMerge>
                <feMergeNode in="shadowMatrixOuter1"></feMergeNode>
                <feMergeNode in="SourceGraphic"></feMergeNode>
            </feMerge>
        </filter>
    </defs>
    <g id="Design" stroke="none" stroke-width="1" fill="none" fill-rule="evenodd" stroke-linecap="round" stroke-linejoin="round">
        <g id="Functionality_16-functions-grid" transform="translate(-540.000000, -503.000000)" stroke="#4A4A4A" stroke-width="1.328">
            <g id="functions-interactive" filter="url(#filter-1)" transform="translate(277.000000, 192.000000)">
                <g id="Group-22">
                    <g id="FN-01" transform="translate(252.000000, 320.000000)">
                        <g id="Group-19" transform="translate(47.200000, 27.200000)">
                            <path d="M25.2949639,21.6 C24.990001,21.6 24.6312539,21.7883791 24.4778483,22.0346938 C24.4778483,22.0346938 23.7339238,23.2269915 22.7016709,23.4747279 C22.5499288,23.510982 22.3950446,23.5264433 22.2392363,23.5264433 C21.3328498,23.5264433 20.4305295,23.0014697 20.4305295,23.0014697 C20.2983789,22.9243409 20.1237184,22.8857765 19.9503517,22.8857765 C19.7707008,22.8857765 19.5904955,22.9266512 19.4553877,23.0080452 L17.8315069,24.1635557 C17.593451,24.3609984 17.460746,24.762637 17.536155,25.0564018 C17.536155,25.0564018 17.8893574,26.4050898 17.3398698,27.2815859 C16.7900126,28.1573712 15.3858898,28.4902336 15.3858898,28.4902336 C15.0801877,28.5623864 14.7735614,28.8632598 14.7031427,29.1582687 L14.4016916,31.0784919 C14.3793276,31.3804317 14.5813424,31.7547019 14.8519276,31.9103813 C14.8519276,31.9103813 16.0924794,32.6256889 16.3477241,33.6182337 C16.6040777,34.6102453 15.8557174,35.8009437 15.8557174,35.8009437 C15.6925161,36.0600538 15.6954733,36.4814189 15.8625559,36.7385742 L17.0641095,38.2994553 C17.2306377,38.4848133 17.535046,38.6037054 17.8074795,38.6037054 C17.8710596,38.6037054 17.9344549,38.5971299 17.9928599,38.5829126 C17.9928599,38.5829126 18.4351485,38.4766383 18.9838967,38.4766383 C19.4130626,38.4766383 19.907472,38.5415047 20.3074354,38.7725357 C21.2184426,39.3008859 21.5635126,40.6525951 21.5635126,40.6525951 C21.6396609,40.9463599 21.9527561,41.2419019 22.2588279,41.3089009 L24.2556875,41.5984006 L24.3039271,41.6 C24.607781,41.6 24.9665282,41.4117986 25.1210427,41.165484 C25.1210427,41.165484 25.8655216,39.9737193 26.8972201,39.727227 C27.0487774,39.6909729 27.2038464,39.6755116 27.3594698,39.6755116 C28.2658563,39.6755116 29.168916,40.2008406 29.168916,40.2008406 C29.300512,40.2785026 29.4749877,40.3163561 29.648909,40.3163561 C29.8280053,40.3163561 30.0082106,40.2758368 30.1433184,40.1942651 L31.7662751,39.0399986 C32.0054399,38.8429113 32.138145,38.4414505 32.0619967,38.147508 C32.0619967,38.147508 31.7106425,36.7963319 32.2588363,35.9203689 C32.8081391,35.0433396 34.2141101,34.7113658 34.2141101,34.7113658 C34.5203667,34.6393908 34.826993,34.3390505 34.8968572,34.0440416 L35.1983084,32.1245293 C35.2206723,31.8224118 35.0186575,31.4481415 34.7486268,31.2924622 C34.7486268,31.2924622 33.5062267,30.5760883 33.2509821,29.5835435 C32.994074,28.5909987 33.7437281,27.3997672 33.7437281,27.3997672 C33.9061901,27.140657 33.9028632,26.719292 33.736335,26.4621367 L32.5345967,24.9007224 C32.3693622,24.7158976 32.0647691,24.5970055 31.7925204,24.5970055 C31.7278313,24.5970055 31.6648057,24.603581 31.606031,24.6177983 C31.606031,24.6177983 31.1641122,24.7246057 30.6148094,24.7246057 C30.1856436,24.7246057 29.6919734,24.6597393 29.2918252,24.427642 C28.3791546,23.8992918 28.0348239,22.5481158 28.0348239,22.5481158 C27.9597845,22.2543509 27.6474287,21.9588089 27.3400631,21.89181 L25.3430186,21.601244 L25.2949639,21.6 Z" id="Stroke-1"></path>
                            <path d="M28,32 C28,33.7673469 26.5672092,35.2 24.7999113,35.2 C23.0326133,35.2 21.6,33.7673469 21.6,32 C21.6,30.2326531 23.0326133,28.8 24.7999113,28.8 C26.5672092,28.8 28,30.2326531 28,32 Z" id="Stroke-3"></path>
                            <polyline id="Stroke-5" points="12.4752867 34.4 0 34.4 0 4 26.4 4 26.4 18.7875576"></polyline>
                            <polyline id="Stroke-7" points="4.8 3.30046606 4.8 0 31.2 0 31.2 14.4"></polyline>
                            <path d="M10.4,9.6 L21.6,9.6" id="Stroke-9"></path>
                            <path d="M10.4,15.2 L21.6,15.2" id="Stroke-11"></path>
                            <path d="M10.4,20.8 L17.6,20.8" id="Stroke-13"></path>
                            <polygon id="Stroke-15" points="4 10.4 7.2 10.4 7.2 8 4 8"></polygon>
                            <polygon id="Stroke-17" points="4 16 7.2 16 7.2 13.6 4 13.6"></polygon>
                            <polygon id="Stroke-18" points="4 21.6 7.2 21.6 7.2 19.2 4 19.2"></polygon>
                        </g>
                    </g>
                </g>
            </g>
        </g>
    </g>
</svg>