<?xml version="1.0" encoding="UTF-8"?>
<svg width="163px" height="160px" viewBox="0 0 163 160" version="1.1" xmlns="http://www.w3.org/2000/svg" xmlns:xlink="http://www.w3.org/1999/xlink">
    <!-- Generator: Sketch 52.6 (67491) - http://www.bohemiancoding.com/sketch -->
    <title> icon_side 01</title>
    <desc>Created with Sketch.</desc>
    <g id="Design" stroke="none" stroke-width="1" fill="none" fill-rule="evenodd" stroke-linecap="round" stroke-linejoin="round">
        <g id="HOME_full-length" transform="translate(-369.000000, -1057.000000)" stroke="#6961D6">
            <g id="animated-box_side-01" transform="translate(259.000000, 985.000000)">
                <g id="banking-copy-3" transform="translate(112.000000, 73.000000)">
                    <g id="Group-23">
                        <path d="M112.7427,98.6223 L40.1237,98.6223" id="Stroke-1" stroke-width="3"></path>
                        <path d="M33.3577,109.8728 L119.5087,110.2538" id="Stroke-2" stroke-width="3"></path>
                        <path d="M99.6243,62.9875 L99.6243,97.2165" id="Stroke-3" stroke-width="3"></path>
                        <path d="M84.1636,62.9875 L84.1636,97.2165" id="Stroke-4" stroke-width="3"></path>
                        <path d="M68.7026,62.9875 L68.7026,97.2165" id="Stroke-5" stroke-width="3"></path>
                        <path d="M53.2419,62.9875 L53.2419,97.2165" id="Stroke-6" stroke-width="3"></path>
                        <path d="M112.7427,60.1765 L40.1237,60.1765" id="Stroke-7" stroke-width="3"></path>
                        <polyline id="Stroke-8" stroke-width="3" points="112.5774 59.01 76.9294 39.314 76.2454 39.314 40.5974 59.01"></polyline>
                        <path d="M8.8235,117.3723 C-10.1215,81.9163 2.3635,37.5663 37.4375,17.3153 C44.3325,13.3353 51.1655,10.6043 58.3655,9.0093" id="Stroke-9" stroke-width="3"></path>
                        <path d="M139.6841,119.5627 C119.0151,155.3627 73.2371,167.6287 37.4371,146.9597 C30.6921,143.0647 25.0121,138.6237 20.1051,133.3407" id="Stroke-11" stroke-width="3"></path>
                        <path d="M78.2212,7.3621 C118.0012,9.1191 149.7122,41.9251 149.7122,82.1381 C149.7122,88.4901 149.0422,94.4101 147.6442,100.1161" id="Stroke-13" stroke-width="3"></path>
                        <polyline id="Stroke-15" stroke-width="3" points="53.4822 21.24 61.2892 8.375 48.4242 0.567"></polyline>
                        <polyline id="Stroke-17" stroke-width="3" points="137.8726 91.3699 146.6226 103.6139 158.8666 94.8649"></polyline>
                        <polyline id="Stroke-19" stroke-width="3" points="33.4485 130.7976 18.4395 131.8976 19.5405 146.9066"></polyline>
                        <polyline id="Stroke-21" stroke-width="3" points="137.8726 91.3699 146.6226 103.6139 158.8666 94.8649"></polyline>
                    </g>
                </g>
            </g>
        </g>
    </g>
</svg>