<?xml version="1.0" encoding="UTF-8"?>
<svg width="78px" height="81px" viewBox="0 0 78 81" version="1.1" xmlns="http://www.w3.org/2000/svg" xmlns:xlink="http://www.w3.org/1999/xlink">
    <!-- Generator: Sketch 52.6 (67491) - http://www.bohemiancoding.com/sketch -->
    <title>icon</title>
    <desc>Created with Sketch.</desc>
    <defs>
        <polygon id="path-1" points="0 83 80 83 80 0 0 0"></polygon>
    </defs>
    <g id="Design" stroke="none" stroke-width="1" fill="none" fill-rule="evenodd">
        <g id="HOME_full-length" transform="translate(-910.000000, -7929.000000)">
            <g id="fee-2" transform="translate(817.000000, 7889.000000)">
                <g id="icon" transform="translate(92.000000, 39.000000)">
                    <path d="M44.3797875,78 L5.03271865,78 C3.36441644,78 2,76.6148784 2,74.9212595 L2,14.0787405 C2,12.3851216 3.36441644,11 5.03271865,11 L64.9672814,11 C66.6340488,11 68,12.3851216 68,14.0787405 L68,39.6201339" id="Stroke-1" stroke="#4A4A4A" stroke-width="2" stroke-linecap="round" stroke-linejoin="round"></path>
                    <path d="M18,21 L18,2" id="Stroke-3" stroke="#4A4A4A" stroke-width="2" stroke-linecap="round" stroke-linejoin="round"></path>
                    <path d="M51,21 L51,2" id="Stroke-5" stroke="#4A4A4A" stroke-width="2" stroke-linecap="round" stroke-linejoin="round"></path>
                    <mask id="mask-2" fill="white">
                        <use xlink:href="#path-1"></use>
                    </mask>
                    <g id="Clip-8"></g>
                    <polygon id="Stroke-7" stroke="#4A4A4A" stroke-width="2" stroke-linecap="round" stroke-linejoin="round" mask="url(#mask-2)" points="11 41 22 41 22 33 11 33"></polygon>
                    <polygon id="Stroke-9" stroke="#4A4A4A" stroke-width="2" stroke-linecap="round" stroke-linejoin="round" mask="url(#mask-2)" points="29 41 40 41 40 33 29 33"></polygon>
                    <polygon id="Stroke-10" stroke="#4A4A4A" stroke-width="2" stroke-linecap="round" stroke-linejoin="round" mask="url(#mask-2)" points="48 41 59 41 59 33 48 33"></polygon>
                    <polygon id="Stroke-11" stroke="#4A4A4A" stroke-width="2" stroke-linecap="round" stroke-linejoin="round" mask="url(#mask-2)" points="11 59 22 59 22 51 11 51"></polygon>
                    <polygon id="Stroke-12" stroke="#4A4A4A" stroke-width="2" stroke-linecap="round" stroke-linejoin="round" mask="url(#mask-2)" points="29 59 40 59 40 51 29 51"></polygon>
                    <path d="M70,68 L47,68" id="Stroke-13" stroke="#4A4A4A" stroke-width="2" stroke-linecap="round" stroke-linejoin="round" mask="url(#mask-2)"></path>
                    <path d="M70,62 L47,62" id="Stroke-14" stroke="#4A4A4A" stroke-width="2" stroke-linecap="round" stroke-linejoin="round" mask="url(#mask-2)"></path>
                    <path d="M78,76.7046352 C75.1328542,79.3685724 71.2844308,81 67.0541387,81 C58.1882101,81 51,73.8363796 51,64.9992202 C51,56.1620607 58.1882101,49 67.0541387,49 C71.0606307,49 74.7228147,50.4614222 77.5367494,52.8804894" id="Stroke-15" stroke="#4A4A4A" stroke-width="2" stroke-linecap="round" stroke-linejoin="round" mask="url(#mask-2)"></path>
                </g>
            </g>
        </g>
    </g>
</svg>