<?xml version="1.0" encoding="UTF-8"?>
<svg width="98px" height="96px" viewBox="0 0 98 96" version="1.1" xmlns="http://www.w3.org/2000/svg" xmlns:xlink="http://www.w3.org/1999/xlink">
    <!-- Generator: Sketch 52.6 (67491) - http://www.bohemiancoding.com/sketch -->
    <title>Group 23</title>
    <desc>Created with Sketch.</desc>
    <g id="Design" stroke="none" stroke-width="1" fill="none" fill-rule="evenodd" stroke-linecap="round" stroke-linejoin="round">
        <g id="Services_full-length" transform="translate(-497.000000, -963.000000)" stroke="#FFFFFF" stroke-width="2.18975069">
            <g id="banking-service" transform="translate(391.000000, 893.000000)">
                <g id="Group-23" transform="translate(107.542968, 71.097851)">
                    <path d="M67.359359,58.9229716 L23.9723433,58.9229716" id="Stroke-1"></path>
                    <path d="M19.9299226,65.6447059 L71.4017797,65.8723385" id="Stroke-2"></path>
                    <path d="M59.5216275,37.6325707 L59.5216275,58.083061" id="Stroke-3"></path>
                    <path d="M50.2844632,37.6325707 L50.2844632,58.083061" id="Stroke-4"></path>
                    <path d="M41.0471197,37.6325707 L41.0471197,58.083061" id="Stroke-5"></path>
                    <path d="M31.8099554,37.6325707 L31.8099554,58.083061" id="Stroke-6"></path>
                    <path d="M67.359359,35.953108 L23.9723433,35.953108" id="Stroke-7"></path>
                    <polyline id="Stroke-8" points="67.2605987 35.2561698 45.9623113 23.4885792 45.553648 23.4885792 24.2553606 35.2561698"></polyline>
                    <path d="M5.27169656,70.1253641 C-6.04720086,48.9417892 1.41209892,22.4443967 22.3674438,10.3452153 C26.4869369,7.96732081 30.5693875,6.335655 34.8711062,5.38270481" id="Stroke-9"></path>
                    <path d="M83.455793,71.4340426 C71.106873,92.8231441 43.7563063,100.1516 22.3672048,87.8026798 C18.3373308,85.4755695 14.9437527,82.8222455 12.0120119,79.6658594" id="Stroke-11"></path>
                    <path d="M46.7341113,4.39856715 C70.5011073,5.44830602 89.4471911,25.0486095 89.4471911,49.0743061 C89.4471911,52.8693779 89.0468922,56.4063467 88.2116418,59.8154588" id="Stroke-13"></path>
                    <polyline id="Stroke-15" points="31.9535252 12.6900703 36.6179028 5.00373533 28.9315678 0.33876035"></polyline>
                    <polyline id="Stroke-17" points="82.3734926 54.5899459 87.6012757 61.9052576 94.9165874 56.6780719"></polyline>
                    <polyline id="Stroke-19" points="19.9841721 78.1464564 11.0168809 78.8036635 11.6746854 87.7709547"></polyline>
                    <polyline id="Stroke-21" points="82.3734926 54.5899459 87.6012757 61.9052576 94.9165874 56.6780719"></polyline>
                </g>
            </g>
        </g>
    </g>
</svg>