<?xml version="1.0" encoding="UTF-8"?>
<svg width="57px" height="94px" viewBox="0 0 57 94" version="1.1" xmlns="http://www.w3.org/2000/svg" xmlns:xlink="http://www.w3.org/1999/xlink">
    <!-- Generator: Sketch 52.6 (67491) - http://www.bohemiancoding.com/sketch -->
    <title>Group 23 Copy</title>
    <desc>Created with Sketch.</desc>
    <defs>
        <polygon id="path-1" points="0.484732457 96.0531182 58.8780843 96.0531182 58.8780843 0.434004642 0.484732457 0.434004642"></polygon>
    </defs>
    <g id="Design" stroke="none" stroke-width="1" fill="none" fill-rule="evenodd">
        <g id="Services_full-length" transform="translate(-907.000000, -1145.000000)">
            <g id="Payments-service" transform="translate(780.000000, 1072.000000)">
                <g id="Group-23-Copy" transform="translate(125.545706, 71.531856)">
                    <path d="M46.469497,47.5136445 C46.469497,56.9877413 38.7909327,64.6666916 29.3173121,64.6666916 C19.8436915,64.6666916 12.1634028,56.9877413 12.1634028,47.5136445 C12.1634028,38.0412722 19.8436915,30.3605974 29.3173121,30.3605974 C38.7909327,30.3605974 46.469497,38.0412722 46.469497,47.5136445 Z" id="Stroke-3" stroke="#FFFFFF" stroke-width="2.18975069"></path>
                    <path d="M31.871159,47.5136445 L20.1924887,47.5136445" id="Stroke-5" stroke="#FFFFFF" stroke-width="2.18975069" stroke-linecap="round" stroke-linejoin="round"></path>
                    <path d="M36.2506604,53.7518108 C34.7769627,55.08797 32.8013535,55.9076889 30.6281833,55.9076889 C26.073603,55.9076889 22.3822394,52.3134035 22.3822394,47.87687 C22.3822394,43.4438025 26.073603,39.8495171 30.6281833,39.8495171 C32.6874445,39.8495171 34.566943,40.582585 36.0121635,41.7974326" id="Stroke-7" stroke="#FFFFFF" stroke-width="2.18975069" stroke-linecap="round" stroke-linejoin="round"></path>
                    <path d="M48.4482491,93.8633675 L10.9145677,93.8633675 C6.36402088,93.8633675 2.67448315,90.2025081 2.67448315,85.6873322 L2.67448315,10.7997906 C2.67448315,6.28461471 6.36402088,2.62375533 10.9145677,2.62375533 L48.4482491,2.62375533 C52.9987958,2.62375533 56.6883336,6.28461471 56.6883336,10.7997906 L56.6883336,85.6873322 C56.6883336,90.2025081 52.9987958,93.8633675 48.4482491,93.8633675 Z" id="Stroke-9" stroke="#FFFFFF" stroke-width="2.18975069" stroke-linecap="round" stroke-linejoin="round"></path>
                    <mask id="mask-2" fill="white">
                        <use xlink:href="#path-1"></use>
                    </mask>
                    <g id="Clip-12"></g>
                    <polygon id="Stroke-11" stroke="#FFFFFF" stroke-width="2.18975069" stroke-linecap="round" stroke-linejoin="round" mask="url(#mask-2)" points="2.67448315 79.2650296 56.6883336 79.2650296 56.6883336 16.4921764 2.67448315 16.4921764"></polygon>
                    <path d="M31.871159,86.929157 C31.871159,88.3411668 30.7265895,89.4838661 29.3164499,89.4838661 C27.9044401,89.4838661 26.7617408,88.3411668 26.7617408,86.929157 C26.7617408,85.5171472 27.9044401,84.3744479 29.3164499,84.3744479 C30.7265895,84.3744479 31.871159,85.5171472 31.871159,86.929157 Z" id="Stroke-13" stroke="#FFFFFF" stroke-width="2.18975069" stroke-linecap="round" stroke-linejoin="round" mask="url(#mask-2)"></path>
                </g>
            </g>
        </g>
    </g>
</svg>