<svg 
 xmlns="http://www.w3.org/2000/svg"
 xmlns:xlink="http://www.w3.org/1999/xlink"
 width="1160px" height="1160px">
<path fill-rule="evenodd"  fill="rgb(243, 243, 243)"
 d="M1160.000,580.000 L0.000,1160.000 L0.000,-0.000 L1160.000,580.000 Z"/>
</svg>